%YAML 1.1
%TAG !u! tag:unity3d.com,2011:
--- !u!1001 &1088105082170437193
PrefabInstance:
  m_ObjectHideFlags: 0
  serializedVersion: 2
  m_Modification:
    m_TransformParent: {fileID: 0}
    m_Modifications:
    - target: {fileID: 4608288851735563604, guid: 6741979c8c3e49d4ba37ef2a3d39e13d,
        type: 3}
      propertyPath: m_LocalScale.z
      value: 0.95
      objectReference: {fileID: 0}
    - target: {fileID: 4846725844263321297, guid: 6741979c8c3e49d4ba37ef2a3d39e13d,
        type: 3}
      propertyPath: m_Name
      value: ShortBelt
      objectReference: {fileID: 0}
    - target: {fileID: 7675342631053176098, guid: 6741979c8c3e49d4ba37ef2a3d39e13d,
        type: 3}
      propertyPath: m_LocalPosition.x
      value: -1.8550891
      objectReference: {fileID: 0}
    - target: {fileID: 7675342631053176098, guid: 6741979c8c3e49d4ba37ef2a3d39e13d,
        type: 3}
      propertyPath: m_LocalPosition.y
      value: -0.00000081856695
      objectReference: {fileID: 0}
    - target: {fileID: 7675342631053176098, guid: 6741979c8c3e49d4ba37ef2a3d39e13d,
        type: 3}
      propertyPath: m_LocalPosition.z
      value: -0.3666377
      objectReference: {fileID: 0}
    - target: {fileID: 7675342631053176098, guid: 6741979c8c3e49d4ba37ef2a3d39e13d,
        type: 3}
      propertyPath: m_LocalRotation.x
      value: 0
      objectReference: {fileID: 0}
    - target: {fileID: 7675342631053176098, guid: 6741979c8c3e49d4ba37ef2a3d39e13d,
        type: 3}
      propertyPath: m_LocalRotation.y
      value: 0.7071068
      objectReference: {fileID: 0}
    - target: {fileID: 7675342631053176098, guid: 6741979c8c3e49d4ba37ef2a3d39e13d,
        type: 3}
      propertyPath: m_LocalRotation.z
      value: 0
      objectReference: {fileID: 0}
    - target: {fileID: 7675342631053176098, guid: 6741979c8c3e49d4ba37ef2a3d39e13d,
        type: 3}
      propertyPath: m_LocalRotation.w
      value: 0.7071068
      objectReference: {fileID: 0}
    - target: {fileID: 7675342631053176098, guid: 6741979c8c3e49d4ba37ef2a3d39e13d,
        type: 3}
      propertyPath: m_RootOrder
      value: 0
      objectReference: {fileID: 0}
    - target: {fileID: 7675342631053176098, guid: 6741979c8c3e49d4ba37ef2a3d39e13d,
        type: 3}
      propertyPath: m_LocalEulerAnglesHint.x
      value: 0
      objectReference: {fileID: 0}
    - target: {fileID: 7675342631053176098, guid: 6741979c8c3e49d4ba37ef2a3d39e13d,
        type: 3}
      propertyPath: m_LocalEulerAnglesHint.y
      value: 90
      objectReference: {fileID: 0}
    - target: {fileID: 7675342631053176098, guid: 6741979c8c3e49d4ba37ef2a3d39e13d,
        type: 3}
      propertyPath: m_LocalEulerAnglesHint.z
      value: 0
      objectReference: {fileID: 0}
    - target: {fileID: 8039074169106716064, guid: 6741979c8c3e49d4ba37ef2a3d39e13d,
        type: 3}
      propertyPath: m_LocalPosition.z
      value: 0.475
      objectReference: {fileID: 0}
    - target: {fileID: 8085218515905759598, guid: 6741979c8c3e49d4ba37ef2a3d39e13d,
        type: 3}
      propertyPath: m_LocalPosition.z
      value: -0.475
      objectReference: {fileID: 0}
    m_RemovedComponents: []
  m_SourcePrefab: {fileID: 100100000, guid: 6741979c8c3e49d4ba37ef2a3d39e13d, type: 3}
