%YAML 1.1
%TAG !u! tag:unity3d.com,2011:
--- !u!1 &7573211056209353733
GameObject:
  m_ObjectHideFlags: 0
  m_CorrespondingSourceObject: {fileID: 0}
  m_PrefabInstance: {fileID: 0}
  m_PrefabAsset: {fileID: 0}
  serializedVersion: 6
  m_Component:
  - component: {fileID: 6606699070722336584}
  - component: {fileID: 3670352086937128170}
  - component: {fileID: 8117608768897042385}
  - component: {fileID: 6393582479898931589}
  m_Layer: 0
  m_Name: Sphere
  m_TagString: food
  m_Icon: {fileID: 0}
  m_NavMeshLayer: 0
  m_StaticEditorFlags: 0
  m_IsActive: 1
--- !u!4 &6606699070722336584
Transform:
  m_ObjectHideFlags: 0
  m_CorrespondingSourceObject: {fileID: 0}
  m_PrefabInstance: {fileID: 0}
  m_PrefabAsset: {fileID: 0}
  m_GameObject: {fileID: 7573211056209353733}
  m_LocalRotation: {x: 0, y: 0, z: 0, w: 1}
  m_LocalPosition: {x: 0, y: 0.108, z: 0}
  m_LocalScale: {x: 0.2, y: 0.2, z: 0.2}
  m_Children: []
  m_Father: {fileID: 5924538042979907291}
  m_RootOrder: 2
  m_LocalEulerAnglesHint: {x: 0, y: 0, z: 0}
--- !u!33 &3670352086937128170
MeshFilter:
  m_ObjectHideFlags: 0
  m_CorrespondingSourceObject: {fileID: 0}
  m_PrefabInstance: {fileID: 0}
  m_PrefabAsset: {fileID: 0}
  m_GameObject: {fileID: 7573211056209353733}
  m_Mesh: {fileID: 10207, guid: 0000000000000000e000000000000000, type: 0}
--- !u!23 &8117608768897042385
MeshRenderer:
  m_ObjectHideFlags: 0
  m_CorrespondingSourceObject: {fileID: 0}
  m_PrefabInstance: {fileID: 0}
  m_PrefabAsset: {fileID: 0}
  m_GameObject: {fileID: 7573211056209353733}
  m_Enabled: 1
  m_CastShadows: 1
  m_ReceiveShadows: 1
  m_DynamicOccludee: 1
  m_MotionVectors: 1
  m_LightProbeUsage: 1
  m_ReflectionProbeUsage: 1
  m_RayTracingMode: 2
  m_RayTraceProcedural: 0
  m_RenderingLayerMask: 1
  m_RendererPriority: 0
  m_Materials:
  - {fileID: 2100000, guid: 268b52f4a83aa93428cb6af759f82b51, type: 2}
  m_StaticBatchInfo:
    firstSubMesh: 0
    subMeshCount: 0
  m_StaticBatchRoot: {fileID: 0}
  m_ProbeAnchor: {fileID: 0}
  m_LightProbeVolumeOverride: {fileID: 0}
  m_ScaleInLightmap: 1
  m_ReceiveGI: 1
  m_PreserveUVs: 0
  m_IgnoreNormalsForChartDetection: 0
  m_ImportantGI: 0
  m_StitchLightmapSeams: 1
  m_SelectedEditorRenderState: 3
  m_MinimumChartSize: 4
  m_AutoUVMaxDistance: 0.5
  m_AutoUVMaxAngle: 89
  m_LightmapParameters: {fileID: 0}
  m_SortingLayerID: 0
  m_SortingLayer: 0
  m_SortingOrder: 0
  m_AdditionalVertexStreams: {fileID: 0}
--- !u!135 &6393582479898931589
SphereCollider:
  m_ObjectHideFlags: 0
  m_CorrespondingSourceObject: {fileID: 0}
  m_PrefabInstance: {fileID: 0}
  m_PrefabAsset: {fileID: 0}
  m_GameObject: {fileID: 7573211056209353733}
  m_Material: {fileID: 0}
  m_IsTrigger: 0
  m_Enabled: 1
  serializedVersion: 2
  m_Radius: 0.5
  m_Center: {x: 0, y: 0, z: 0}
--- !u!1001 &712593685107811474
PrefabInstance:
  m_ObjectHideFlags: 0
  serializedVersion: 2
  m_Modification:
    m_TransformParent: {fileID: 0}
    m_Modifications:
    - target: {fileID: 1497706000556162329, guid: 91ca12cb8f8f16240b336fa59912b453,
        type: 3}
      propertyPath: m_TagString
      value: food
      objectReference: {fileID: 0}
    - target: {fileID: 3821888330052008206, guid: 91ca12cb8f8f16240b336fa59912b453,
        type: 3}
      propertyPath: m_TagString
      value: food
      objectReference: {fileID: 0}
    - target: {fileID: 6619037853153448521, guid: 91ca12cb8f8f16240b336fa59912b453,
        type: 3}
      propertyPath: m_RootOrder
      value: 0
      objectReference: {fileID: 0}
    - target: {fileID: 6619037853153448521, guid: 91ca12cb8f8f16240b336fa59912b453,
        type: 3}
      propertyPath: m_LocalPosition.x
      value: 0
      objectReference: {fileID: 0}
    - target: {fileID: 6619037853153448521, guid: 91ca12cb8f8f16240b336fa59912b453,
        type: 3}
      propertyPath: m_LocalPosition.y
      value: 0
      objectReference: {fileID: 0}
    - target: {fileID: 6619037853153448521, guid: 91ca12cb8f8f16240b336fa59912b453,
        type: 3}
      propertyPath: m_LocalPosition.z
      value: 0
      objectReference: {fileID: 0}
    - target: {fileID: 6619037853153448521, guid: 91ca12cb8f8f16240b336fa59912b453,
        type: 3}
      propertyPath: m_LocalRotation.w
      value: 1
      objectReference: {fileID: 0}
    - target: {fileID: 6619037853153448521, guid: 91ca12cb8f8f16240b336fa59912b453,
        type: 3}
      propertyPath: m_LocalRotation.x
      value: 0
      objectReference: {fileID: 0}
    - target: {fileID: 6619037853153448521, guid: 91ca12cb8f8f16240b336fa59912b453,
        type: 3}
      propertyPath: m_LocalRotation.y
      value: 0
      objectReference: {fileID: 0}
    - target: {fileID: 6619037853153448521, guid: 91ca12cb8f8f16240b336fa59912b453,
        type: 3}
      propertyPath: m_LocalRotation.z
      value: 0
      objectReference: {fileID: 0}
    - target: {fileID: 6619037853153448521, guid: 91ca12cb8f8f16240b336fa59912b453,
        type: 3}
      propertyPath: m_LocalEulerAnglesHint.x
      value: 0
      objectReference: {fileID: 0}
    - target: {fileID: 6619037853153448521, guid: 91ca12cb8f8f16240b336fa59912b453,
        type: 3}
      propertyPath: m_LocalEulerAnglesHint.y
      value: 0
      objectReference: {fileID: 0}
    - target: {fileID: 6619037853153448521, guid: 91ca12cb8f8f16240b336fa59912b453,
        type: 3}
      propertyPath: m_LocalEulerAnglesHint.z
      value: 0
      objectReference: {fileID: 0}
    - target: {fileID: 6619037853153448524, guid: 91ca12cb8f8f16240b336fa59912b453,
        type: 3}
      propertyPath: m_Name
      value: SphereFood
      objectReference: {fileID: 0}
    - target: {fileID: 6619037853153448526, guid: 91ca12cb8f8f16240b336fa59912b453,
        type: 3}
      propertyPath: name
      value: Sphere
      objectReference: {fileID: 0}
    - target: {fileID: 6619037853153448526, guid: 91ca12cb8f8f16240b336fa59912b453,
        type: 3}
      propertyPath: foodImage
      value: 
      objectReference: {fileID: 10913, guid: 0000000000000000f000000000000000, type: 0}
    m_RemovedComponents: []
  m_SourcePrefab: {fileID: 100100000, guid: 91ca12cb8f8f16240b336fa59912b453, type: 3}
--- !u!4 &5924538042979907291 stripped
Transform:
  m_CorrespondingSourceObject: {fileID: 6619037853153448521, guid: 91ca12cb8f8f16240b336fa59912b453,
    type: 3}
  m_PrefabInstance: {fileID: 712593685107811474}
  m_PrefabAsset: {fileID: 0}
