%YAML 1.1
%TAG !u! tag:unity3d.com,2011:
--- !u!1001 &1476655575139822354
PrefabInstance:
  m_ObjectHideFlags: 0
  serializedVersion: 2
  m_Modification:
    m_TransformParent: {fileID: 0}
    m_Modifications:
    - target: {fileID: 786809126632578922, guid: 4fb344fa14af85540ac57606374a9d4c,
        type: 3}
      propertyPath: m_Name
      value: TableCoverDouble
      objectReference: {fileID: 0}
    - target: {fileID: 6773103732281939102, guid: 4fb344fa14af85540ac57606374a9d4c,
        type: 3}
      propertyPath: m_LocalPosition.x
      value: 0
      objectReference: {fileID: 0}
    - target: {fileID: 6773103732281939102, guid: 4fb344fa14af85540ac57606374a9d4c,
        type: 3}
      propertyPath: m_LocalPosition.y
      value: 0
      objectReference: {fileID: 0}
    - target: {fileID: 6773103732281939102, guid: 4fb344fa14af85540ac57606374a9d4c,
        type: 3}
      propertyPath: m_LocalPosition.z
      value: 0
      objectReference: {fileID: 0}
    - target: {fileID: 6773103732281939102, guid: 4fb344fa14af85540ac57606374a9d4c,
        type: 3}
      propertyPath: m_LocalRotation.x
      value: 0
      objectReference: {fileID: 0}
    - target: {fileID: 6773103732281939102, guid: 4fb344fa14af85540ac57606374a9d4c,
        type: 3}
      propertyPath: m_LocalRotation.y
      value: 0
      objectReference: {fileID: 0}
    - target: {fileID: 6773103732281939102, guid: 4fb344fa14af85540ac57606374a9d4c,
        type: 3}
      propertyPath: m_LocalRotation.z
      value: 0
      objectReference: {fileID: 0}
    - target: {fileID: 6773103732281939102, guid: 4fb344fa14af85540ac57606374a9d4c,
        type: 3}
      propertyPath: m_LocalRotation.w
      value: 1
      objectReference: {fileID: 0}
    - target: {fileID: 6773103732281939102, guid: 4fb344fa14af85540ac57606374a9d4c,
        type: 3}
      propertyPath: m_RootOrder
      value: 0
      objectReference: {fileID: 0}
    - target: {fileID: 6773103732281939102, guid: 4fb344fa14af85540ac57606374a9d4c,
        type: 3}
      propertyPath: m_LocalEulerAnglesHint.x
      value: 0
      objectReference: {fileID: 0}
    - target: {fileID: 6773103732281939102, guid: 4fb344fa14af85540ac57606374a9d4c,
        type: 3}
      propertyPath: m_LocalEulerAnglesHint.y
      value: 0
      objectReference: {fileID: 0}
    - target: {fileID: 6773103732281939102, guid: 4fb344fa14af85540ac57606374a9d4c,
        type: 3}
      propertyPath: m_LocalEulerAnglesHint.z
      value: 0
      objectReference: {fileID: 0}
    - target: {fileID: 6773103732281939102, guid: 4fb344fa14af85540ac57606374a9d4c,
        type: 3}
      propertyPath: m_LocalScale.x
      value: 2
      objectReference: {fileID: 0}
    m_RemovedComponents: []
  m_SourcePrefab: {fileID: 100100000, guid: 4fb344fa14af85540ac57606374a9d4c, type: 3}
